{
    "namespace": "Plugin.Clipboard",
    "schema": {
        "name": "ClipboardPl",
        "color": "#00E5FF",
        "icon": "M19,3H14.82C14.4,1.84 13.3,1 12,1C10.7,1 9.6,1.84 9.18,3H5C3.9,3 3,3.9 3,5V19C3,20.1 3.9,21 5,21H19C20.1,21 21,20.1 21,19V5C21,3.9 20.1,3 19,3M12,3C12.55,3 13,3.45 13,4C13,4.55 12.55,5 12,5C11.45,5 11,4.55 11,4C11,3.45 11.45,3 12,3",
        "nodes": [
            {
                "name": "Get From Clipboard (1.8.0)",
                "color": "#00E5FF",
                "icon": "M17,9H7V7H17M17,13H7V11H17M14,17H7V15H14M12,3C12.55,3 13,3.45 13,4C13,4.55 12.55,5 12,5C11.45,5 11,4.55 11,4C11,3.45 11.45,3 12,3M19,3H14.82C14.4,1.84 13.3,1 12,1C10.7,1 9.6,1.84 9.18,3H5C3.9,3 3,3.9 3,5V19C3,20.1 3.9,21 5,21H19C20.1,21 21,20.1 21,19V5C21,3.9 20.1,3 19,3Z",
                "id": "Plugin.Clipboard.Get",
                "inputs": 1,
                "outputs": 1,
                "properties": [
                    {
                        "schema": {
                            "title": "Config",
                            "type": "object",
                            "properties": {
                                "variable": {
                                    "type": "object",
                                    "title": "Write Into Variable",
                                    "variableType": "String",
                                    "properties": {
                                        "scope": {
                                            "type": "string"
                                        },
                                        "name": {
                                            "type": "string"
                                        }
                                    }
                                }
                            }
                        },
                        "uiSchema": {
                            "variable": {
                                "ui:field": "variable"
                            }
                        },
                        "formData": {
                            "variable": {
                                "scope": "_",
                                "name": "_"
                            }
                        }
                    }
                ]
            }
        ]
    },
    "document": [
        {
            "Plugin.Clipboard.Get": {
                "description": "Gets the content of the clipboard",
                "config": [
                    {
                        "name": "Select Scope",
                        "description": "Scope of the variable",
                        "type": "enum",
                        "enums": [
                            {
                                "name": "Global",
                                "description": "It can be used another flow"
                            },
                            {
                                "name": "Flow",
                                "description": "It can be used only the current flow"
                            }
                        ]
                    }
                ],
                "inputs": [],
                "outputs": [
                    {
                        "name": "payload",
                        "description": "Content of the clipboard",
                        "type": "string"
                    }
                ],
                "details": "If output variable scope is selected, variable also has to be selected where the clipboard content will be copied into"
            }
        }
    ]
}